<mxfile host="app.diagrams.net" agent="Mozilla/5.0 (X11; Linux x86_64; rv:133.0) Gecko/20100101 Firefox/133.0" version="25.0.3">
  <diagram name="Page-1" id="oiZ_knwsisARO1Fz2RBx">
    <mxGraphModel dx="2074" dy="1128" grid="1" gridSize="10" guides="1" tooltips="1" connect="1" arrows="1" fold="1" page="1" pageScale="1" pageWidth="850" pageHeight="1100" math="0" shadow="0">
      <root>
        <mxCell id="0" />
        <mxCell id="1" parent="0" />
        <mxCell id="2" value="&quot;Hello Bioinformatics&quot;" style="rounded=1;arcSize=40;strokeWidth=2;fillColor=#33FF99;" parent="1" vertex="1">
          <mxGeometry x="104" y="71" width="221" height="50" as="geometry" />
        </mxCell>
        <mxCell id="3" value="&quot;Hello Protein&quot;" style="rounded=1;arcSize=40;strokeWidth=2;fontFamily=Ubuntu;fillColor=#33FF99;" parent="1" vertex="1">
          <mxGeometry x="432" y="62" width="133" height="68" as="geometry" />
        </mxCell>
        <mxCell id="4" value="&quot;Hello DNA&quot;" style="rounded=1;arcSize=40;strokeWidth=2;fontFamily=Ubuntu;fillColor=#CC6600;" parent="1" vertex="1">
          <mxGeometry x="425" y="190" width="142" height="50" as="geometry" />
        </mxCell>
        <mxCell id="5" value="Commit: Replaces &#xa;&quot;Bioinformatics&quot;&#xa; with &quot;Protein&quot;" style="curved=1;startArrow=none;endArrow=block;exitX=1;exitY=0.5;entryX=0;entryY=0.5;exitDx=0;exitDy=0;entryDx=0;entryDy=0;fillColor=#d5e8d4;strokeColor=#82b366;labelBackgroundColor=none;fontFamily=Ubuntu;" parent="1" edge="1">
          <mxGeometry x="-0.0093" y="26" relative="1" as="geometry">
            <Array as="points">
              <mxPoint x="426" y="96" />
            </Array>
            <mxPoint x="325" y="96" as="sourcePoint" />
            <mxPoint x="432" y="96" as="targetPoint" />
            <mxPoint as="offset" />
          </mxGeometry>
        </mxCell>
        <mxCell id="6" value="New branch: DNA" style="curved=1;startArrow=none;endArrow=block;exitX=0.5;exitY=1;entryX=0;entryY=0.49;exitDx=0;exitDy=0;fillColor=#fad7ac;strokeColor=#b46504;labelBackgroundColor=none;fontFamily=Ubuntu;" parent="1" source="2" target="4" edge="1">
          <mxGeometry x="-0.8559" y="-43" relative="1" as="geometry">
            <Array as="points">
              <mxPoint x="276" y="220" />
            </Array>
            <mxPoint as="offset" />
          </mxGeometry>
        </mxCell>
        <mxCell id="nyj94QmwSvrs-VSBHzbS-6" value="&lt;font face=&quot;Ubuntu&quot;&gt;main&lt;/font&gt;" style="text;html=1;align=center;verticalAlign=middle;whiteSpace=wrap;rounded=0;" parent="1" vertex="1">
          <mxGeometry x="38" y="81" width="60" height="30" as="geometry" />
        </mxCell>
        <mxCell id="nyj94QmwSvrs-VSBHzbS-9" value="&lt;font face=&quot;Ubuntu&quot;&gt;Commit: Replaces&amp;nbsp;&lt;br&gt;&quot;Bioinformatics&quot;&lt;br&gt;&amp;nbsp;with &quot;DNA&quot;&lt;/font&gt;" style="text;html=1;align=center;verticalAlign=middle;whiteSpace=wrap;rounded=0;" parent="1" vertex="1">
          <mxGeometry x="328" y="160" width="60" height="30" as="geometry" />
        </mxCell>
        <mxCell id="nyj94QmwSvrs-VSBHzbS-11" value="" style="endArrow=classic;html=1;rounded=0;exitX=1;exitY=0.5;exitDx=0;exitDy=0;entryX=0.1;entryY=0.575;entryDx=0;entryDy=0;entryPerimeter=0;fillColor=#d5e8d4;strokeColor=#82b366;" parent="1" source="3" target="nyj94QmwSvrs-VSBHzbS-14" edge="1">
          <mxGeometry width="50" height="50" relative="1" as="geometry">
            <mxPoint x="448" y="370" as="sourcePoint" />
            <mxPoint x="638" y="96" as="targetPoint" />
          </mxGeometry>
        </mxCell>
        <mxCell id="nyj94QmwSvrs-VSBHzbS-12" value="" style="endArrow=classic;html=1;rounded=0;exitX=1;exitY=0.5;exitDx=0;exitDy=0;fillColor=#fad7ac;strokeColor=#b46504;" parent="1" source="4" target="nyj94QmwSvrs-VSBHzbS-14" edge="1">
          <mxGeometry width="50" height="50" relative="1" as="geometry">
            <mxPoint x="448" y="370" as="sourcePoint" />
            <mxPoint x="628" y="150" as="targetPoint" />
          </mxGeometry>
        </mxCell>
        <mxCell id="nyj94QmwSvrs-VSBHzbS-14" value="&lt;font face=&quot;Ubuntu&quot;&gt;Merge Conflict!&lt;/font&gt;" style="ellipse;shape=cloud;whiteSpace=wrap;html=1;fillColor=#ffcccc;strokeColor=#36393d;" parent="1" vertex="1">
          <mxGeometry x="628" y="50" width="120" height="80" as="geometry" />
        </mxCell>
      </root>
    </mxGraphModel>
  </diagram>
</mxfile>
